<?xml version="1.0" encoding="UTF-8" standalone="no"?>
<!-- Created with Inkscape (http://www.inkscape.org/) -->

<svg
   xmlns:dc="http://purl.org/dc/elements/1.1/"
   xmlns:cc="http://creativecommons.org/ns#"
   xmlns:rdf="http://www.w3.org/1999/02/22-rdf-syntax-ns#"
   xmlns:svg="http://www.w3.org/2000/svg"
   xmlns="http://www.w3.org/2000/svg"
   xmlns:sodipodi="http://sodipodi.sourceforge.net/DTD/sodipodi-0.dtd"
   xmlns:inkscape="http://www.inkscape.org/namespaces/inkscape"
   width="615.14044"
   height="420.19083"
   id="svg2"
   version="1.1"
   inkscape:version="0.48.0 r9654"
   sodipodi:docname="komponenty.pdf">
  <defs
     id="defs4">
    <marker
       inkscape:stockid="Arrow1Mstart"
       orient="auto"
       refY="0"
       refX="0"
       id="Arrow1Mstart"
       style="overflow:visible">
      <path
         id="path3792"
         d="M 0,0 5,-5 -12.5,0 5,5 0,0 z"
         style="fill-rule:evenodd;stroke:#000000;stroke-width:1pt;marker-start:none"
         transform="matrix(0.4,0,0,0.4,4,0)"
         inkscape:connector-curvature="0" />
    </marker>
    <marker
       inkscape:stockid="Arrow2Mstart"
       orient="auto"
       refY="0"
       refX="0"
       id="Arrow2Mstart"
       style="overflow:visible">
      <path
         id="path3810"
         style="font-size:12px;fill-rule:evenodd;stroke-width:0.625;stroke-linejoin:round"
         d="M 8.7185878,4.0337352 -2.2072895,0.01601326 8.7185884,-4.0017078 c -1.7454984,2.3720609 -1.7354408,5.6174519 -6e-7,8.035443 z"
         transform="scale(0.6,0.6)"
         inkscape:connector-curvature="0" />
    </marker>
    <marker
       inkscape:stockid="Arrow2Sstart"
       orient="auto"
       refY="0"
       refX="0"
       id="Arrow2Sstart"
       style="overflow:visible">
      <path
         id="path3816"
         style="font-size:12px;fill-rule:evenodd;stroke-width:0.625;stroke-linejoin:round"
         d="M 8.7185878,4.0337352 -2.2072895,0.01601326 8.7185884,-4.0017078 c -1.7454984,2.3720609 -1.7354408,5.6174519 -6e-7,8.035443 z"
         transform="matrix(0.3,0,0,0.3,-0.69,0)"
         inkscape:connector-curvature="0" />
    </marker>
    <marker
       inkscape:stockid="Arrow1Sstart"
       orient="auto"
       refY="0"
       refX="0"
       id="Arrow1Sstart"
       style="overflow:visible">
      <path
         id="path3798"
         d="M 0,0 5,-5 -12.5,0 5,5 0,0 z"
         style="fill-rule:evenodd;stroke:#000000;stroke-width:1pt;marker-start:none"
         transform="matrix(0.2,0,0,0.2,1.2,0)"
         inkscape:connector-curvature="0" />
    </marker>
    <marker
       inkscape:stockid="CurveOut"
       orient="auto"
       refY="0"
       refX="0"
       id="CurveOut"
       style="overflow:visible">
      <path
         id="path3974"
         d="m -5.4129913,-5.0456926 c 2.76,0 4.99999999,2.24 4.99999999,5.00000002 0,2.75999998 -2.23999999,4.99999998 -4.99999999,4.99999998"
         style="fill:none;stroke:#000000;stroke-width:1pt;marker-start:none;marker-end:none"
         transform="scale(0.6,0.6)"
         inkscape:connector-curvature="0" />
    </marker>
    <marker
       inkscape:stockid="DotM"
       orient="auto"
       refY="0"
       refX="0"
       id="DotM"
       style="overflow:visible">
      <path
         id="path3851"
         d="m -2.5,-1 c 0,2.76 -2.24,5 -5,5 -2.76,0 -5,-2.24 -5,-5 0,-2.76 2.24,-5 5,-5 2.76,0 5,2.24 5,5 z"
         style="fill-rule:evenodd;stroke:#000000;stroke-width:1pt;marker-start:none;marker-end:none"
         transform="matrix(0.4,0,0,0.4,2.96,0.4)"
         inkscape:connector-curvature="0" />
    </marker>
    <marker
       inkscape:stockid="DotM"
       orient="auto"
       refY="0"
       refX="0"
       id="DotM-3"
       style="overflow:visible">
      <path
         inkscape:connector-curvature="0"
         id="path3851-2"
         d="m -2.5,-1 c 0,2.76 -2.24,5 -5,5 -2.76,0 -5,-2.24 -5,-5 0,-2.76 2.24,-5 5,-5 2.76,0 5,2.24 5,5 z"
         style="fill-rule:evenodd;stroke:#000000;stroke-width:1pt;marker-start:none;marker-end:none"
         transform="matrix(0.4,0,0,0.4,2.96,0.4)" />
    </marker>
  </defs>
  <sodipodi:namedview
     id="base"
     pagecolor="#ffffff"
     bordercolor="#666666"
     borderopacity="1.0"
     inkscape:pageopacity="0.0"
     inkscape:pageshadow="2"
     inkscape:zoom="0.7"
     inkscape:cx="262.39697"
     inkscape:cy="202.39499"
     inkscape:document-units="px"
     inkscape:current-layer="layer1"
     showgrid="false"
     showborder="true"
     inkscape:window-width="1280"
     inkscape:window-height="723"
     inkscape:window-x="0"
     inkscape:window-y="24"
     inkscape:window-maximized="1"
     showguides="true"
     inkscape:guide-bbox="true"
     fit-margin-top="0"
     fit-margin-left="0"
     fit-margin-right="0"
     fit-margin-bottom="0" />
  <metadata
     id="metadata7">
    <rdf:RDF>
      <cc:Work
         rdf:about="">
        <dc:format>image/svg+xml</dc:format>
        <dc:type
           rdf:resource="http://purl.org/dc/dcmitype/StillImage" />
        <dc:title></dc:title>
      </cc:Work>
    </rdf:RDF>
  </metadata>
  <g
     inkscape:label="Layer 1"
     inkscape:groupmode="layer"
     id="layer1"
     transform="translate(-64.477022,-316.08569)">
    <g
       id="g7832"
       transform="translate(-133.65134,-83.174026)">
      <rect
         style="fill:#ffffff;stroke:#000000;stroke-width:1.77165353"
         id="rect5759"
         width="457.66583"
         height="417.409"
         x="354.71713"
         y="400.14554" />
      <text
         xml:space="preserve"
         style="font-size:11.93329334px;font-style:normal;font-variant:normal;font-weight:normal;font-stretch:normal;text-align:start;line-height:125%;letter-spacing:0px;word-spacing:0px;writing-mode:lr-tb;text-anchor:start;fill:#000000;fill-opacity:1;stroke:none;font-family:Ubuntu;-inkscape-font-specification:Ubuntu"
         x="583.48926"
         y="422.99112"
         id="text5765"
         sodipodi:linespacing="125%"><tspan
           sodipodi:role="line"
           x="583.48926"
           y="422.99112"
           style="text-align:center;text-anchor:middle"
           id="tspan5767">libednai</tspan></text>
      <g
         id="g5791"
         transform="translate(337.64632,-134.9315)">
        <path
           style="fill:#ffffff;stroke:#000000;stroke-width:0.88582677"
           d="m 457.14493,538.4826 14.10212,0 0,19.23707 -14.10212,0 z"
           id="path5793"
           inkscape:connector-curvature="0" />
        <path
           style="fill:#ffffff;stroke:#000000;stroke-width:0.88582677"
           d="m 453.9223,541.77802 5.77386,0 0,4.14139 -5.77386,0 z"
           id="path5795"
           inkscape:connector-curvature="0" />
        <path
           style="fill:#ffffff;stroke:#000000;stroke-width:0.88582677"
           d="m 453.9223,549.96722 5.77386,0 0,4.1414 -5.77386,0 z"
           id="path5797"
           inkscape:connector-curvature="0" />
      </g>
      <g
         transform="translate(101.01525,114.75709)"
         id="g6201">
        <rect
           style="fill:#ffffff;stroke:#000000;stroke-width:1.77165353"
           id="rect4423"
           width="380.46445"
           height="84.386177"
           x="306.26263"
           y="506.3714" />
        <text
           xml:space="preserve"
           style="font-size:11.93329334px;font-style:normal;font-variant:normal;font-weight:normal;font-stretch:normal;text-align:start;line-height:125%;letter-spacing:0px;word-spacing:0px;writing-mode:lr-tb;text-anchor:start;fill:#000000;fill-opacity:1;stroke:none;font-family:Ubuntu;-inkscape-font-specification:Ubuntu"
           x="510.07022"
           y="519.91064"
           id="text5761"
           sodipodi:linespacing="125%"><tspan
             sodipodi:role="line"
             x="510.07022"
             y="519.91064"
             style="text-align:center;text-anchor:middle"
             id="tspan5763">DiGeST</tspan></text>
        <g
           id="g5799"
           transform="translate(212.13204,-29.041885)">
          <path
             style="fill:#ffffff;stroke:#000000;stroke-width:0.88582677"
             d="m 457.14493,538.4826 14.10212,0 0,19.23707 -14.10212,0 z"
             id="path5801"
             inkscape:connector-curvature="0" />
          <path
             style="fill:#ffffff;stroke:#000000;stroke-width:0.88582677"
             d="m 453.9223,541.77802 5.77386,0 0,4.14139 -5.77386,0 z"
             id="path5803"
             inkscape:connector-curvature="0" />
          <path
             style="fill:#ffffff;stroke:#000000;stroke-width:0.88582677"
             d="m 453.9223,549.96722 5.77386,0 0,4.1414 -5.77386,0 z"
             id="path5805"
             inkscape:connector-curvature="0" />
        </g>
        <g
           id="g6173"
           transform="translate(-4.4887649,-10.729153)">
          <text
             xml:space="preserve"
             style="font-size:11.93329334px;font-style:normal;font-variant:normal;font-weight:normal;font-stretch:normal;text-align:start;line-height:125%;letter-spacing:0px;word-spacing:0px;writing-mode:lr-tb;text-anchor:start;fill:#000000;fill-opacity:1;stroke:none;font-family:Ubuntu;-inkscape-font-specification:Ubuntu"
             x="524.63074"
             y="554.82397"
             id="text4415"
             sodipodi:linespacing="125%"><tspan
               sodipodi:role="line"
               x="524.63074"
               y="554.82397"
               style="text-align:center;text-anchor:middle"
               id="tspan4419">digest.h</tspan></text>
          <path
             style="fill:none;stroke:#000000;stroke-width:1.77199996;stroke-linecap:butt;stroke-linejoin:miter;stroke-miterlimit:4;stroke-opacity:1;stroke-dasharray:none;marker-start:url(#DotM)"
             d="m 356.53973,565.75344 28.57143,0"
             id="path4613"
             inkscape:connector-curvature="0"
             sodipodi:nodetypes="cc" />
          <path
             sodipodi:nodetypes="cc"
             style="fill:none;stroke:#000000;stroke-width:1.77199996;stroke-linecap:butt;stroke-linejoin:miter;stroke-miterlimit:4;stroke-opacity:1;stroke-dasharray:none;marker-start:url(#CurveOut)"
             d="m 521.79964,565.70486 -28.42349,0"
             id="path4227"
             inkscape:connector-curvature="0" />
          <g
             id="g5815">
            <rect
               y="536.21204"
               x="385.4382"
               height="59.082813"
               width="107.80285"
               id="rect2997"
               style="fill:#ffffff;stroke:#000000;stroke-width:1.53963888" />
            <text
               sodipodi:linespacing="125%"
               id="text2999"
               y="562.61499"
               x="438.91815"
               style="font-size:11.93329334px;font-style:normal;font-variant:normal;font-weight:normal;font-stretch:normal;text-align:start;line-height:125%;letter-spacing:0px;word-spacing:0px;writing-mode:lr-tb;text-anchor:start;fill:#000000;fill-opacity:1;stroke:none;font-family:Ubuntu;-inkscape-font-specification:Ubuntu"
               xml:space="preserve"><tspan
                 style="text-align:center;text-anchor:middle"
                 id="tspan3001"
                 y="562.61499"
                 x="438.91815"
                 sodipodi:role="line">DiGeST</tspan><tspan
                 id="tspan3003"
                 style="text-align:center;text-anchor:middle"
                 y="577.53162"
                 x="438.91815"
                 sodipodi:role="line">driver</tspan></text>
            <g
               id="g5778"
               transform="translate(19.192898,0)">
              <path
                 id="rect5769"
                 d="m 457.14493,538.4826 14.10212,0 0,19.23707 -14.10212,0 z"
                 style="fill:#ffffff;stroke:#000000;stroke-width:0.88582677"
                 inkscape:connector-curvature="0" />
              <path
                 id="rect5771"
                 d="m 453.9223,541.77802 5.77386,0 0,4.14139 -5.77386,0 z"
                 style="fill:#ffffff;stroke:#000000;stroke-width:0.88582677"
                 inkscape:connector-curvature="0" />
              <path
                 id="rect5773"
                 d="m 453.9223,549.96722 5.77386,0 0,4.1414 -5.77386,0 z"
                 style="fill:#ffffff;stroke:#000000;stroke-width:0.88582677"
                 inkscape:connector-curvature="0" />
            </g>
          </g>
          <path
             sodipodi:nodetypes="cc"
             inkscape:connector-curvature="0"
             id="path3013"
             d="m 527.79499,565.75344 28.57143,0"
             style="fill:none;stroke:#000000;stroke-width:1.77199996;stroke-linecap:butt;stroke-linejoin:miter;stroke-miterlimit:4;stroke-opacity:1;stroke-dasharray:none;marker-start:url(#DotM)" />
          <g
             id="g5837">
            <rect
               style="fill:#ffffff;stroke:#000000;stroke-width:1.53963888"
               id="rect3005"
               width="107.80285"
               height="59.082813"
               x="556.87909"
               y="536.21204" />
            <text
               xml:space="preserve"
               style="font-size:11.93329334px;font-style:normal;font-variant:normal;font-weight:normal;font-stretch:normal;text-align:start;line-height:125%;letter-spacing:0px;word-spacing:0px;writing-mode:lr-tb;text-anchor:start;fill:#000000;fill-opacity:1;stroke:none;font-family:Ubuntu;-inkscape-font-specification:Ubuntu"
               x="610.96686"
               y="561.56488"
               id="text3007"
               sodipodi:linespacing="125%"><tspan
                 sodipodi:role="line"
                 x="610.96686"
                 y="561.56488"
                 id="tspan3009"
                 style="text-align:center;text-anchor:middle">DiGeST</tspan><tspan
                 sodipodi:role="line"
                 x="610.96686"
                 y="576.48151"
                 style="text-align:center;text-anchor:middle"
                 id="tspan3011">algorithm</tspan></text>
            <g
               id="g5783"
               transform="translate(189.90868,0.75761441)">
              <path
                 style="fill:#ffffff;stroke:#000000;stroke-width:0.88582677"
                 d="m 457.14493,538.4826 14.10212,0 0,19.23707 -14.10212,0 z"
                 id="path5785"
                 inkscape:connector-curvature="0" />
              <path
                 style="fill:#ffffff;stroke:#000000;stroke-width:0.88582677"
                 d="m 453.9223,541.77802 5.77386,0 0,4.14139 -5.77386,0 z"
                 id="path5787"
                 inkscape:connector-curvature="0" />
              <path
                 style="fill:#ffffff;stroke:#000000;stroke-width:0.88582677"
                 d="m 453.9223,549.96722 5.77386,0 0,4.1414 -5.77386,0 z"
                 id="path5789"
                 inkscape:connector-curvature="0" />
            </g>
          </g>
          <text
             sodipodi:linespacing="125%"
             id="text5975"
             y="554.82397"
             x="355.43018"
             style="font-size:11.93329334px;font-style:normal;font-variant:normal;font-weight:normal;font-stretch:normal;text-align:start;line-height:125%;letter-spacing:0px;word-spacing:0px;writing-mode:lr-tb;text-anchor:start;fill:#000000;fill-opacity:1;stroke:none;font-family:Ubuntu;-inkscape-font-specification:Ubuntu"
             xml:space="preserve"><tspan
               id="tspan5977"
               style="text-align:center;text-anchor:middle"
               y="554.82397"
               x="355.43018"
               sodipodi:role="line">driver.h</tspan></text>
          <path
             sodipodi:nodetypes="cc"
             inkscape:connector-curvature="0"
             id="path5979"
             d="m 349.7212,565.75344 -37.08849,0"
             style="fill:none;stroke:#000000;stroke-width:1.77199996;stroke-linecap:butt;stroke-linejoin:miter;stroke-miterlimit:4;stroke-opacity:1;stroke-dasharray:none;marker-start:url(#Arrow1Mstart)" />
        </g>
        <rect
           style="fill:#ffffff;stroke:#000000;stroke-width:1.77165353;stroke-miterlimit:4;stroke-dasharray:none"
           id="rect4611"
           width="9.2857141"
           height="9.2857141"
           x="301.78571"
           y="550.38141" />
      </g>
      <g
         id="g6257"
         transform="translate(101.01525,-70.168204)">
        <rect
           y="506.3714"
           x="306.26263"
           height="84.386177"
           width="380.46445"
           id="rect6259"
           style="fill:#ffffff;stroke:#000000;stroke-width:1.77165353" />
        <text
           sodipodi:linespacing="125%"
           id="text6261"
           y="519.91064"
           x="510.07022"
           style="font-size:11.93329334px;font-style:normal;font-variant:normal;font-weight:normal;font-stretch:normal;text-align:start;line-height:125%;letter-spacing:0px;word-spacing:0px;writing-mode:lr-tb;text-anchor:start;fill:#000000;fill-opacity:1;stroke:none;font-family:Ubuntu;-inkscape-font-specification:Ubuntu"
           xml:space="preserve"><tspan
             id="tspan6263"
             style="text-align:center;text-anchor:middle"
             y="519.91064"
             x="510.07022"
             sodipodi:role="line">TRELLIS</tspan></text>
        <g
           transform="translate(212.13204,-29.041885)"
           id="g6265">
          <path
             inkscape:connector-curvature="0"
             id="path6267"
             d="m 457.14493,538.4826 14.10212,0 0,19.23707 -14.10212,0 z"
             style="fill:#ffffff;stroke:#000000;stroke-width:0.88582677" />
          <path
             inkscape:connector-curvature="0"
             id="path6269"
             d="m 453.9223,541.77802 5.77386,0 0,4.14139 -5.77386,0 z"
             style="fill:#ffffff;stroke:#000000;stroke-width:0.88582677" />
          <path
             inkscape:connector-curvature="0"
             id="path6271"
             d="m 453.9223,549.96722 5.77386,0 0,4.1414 -5.77386,0 z"
             style="fill:#ffffff;stroke:#000000;stroke-width:0.88582677" />
        </g>
        <g
           transform="translate(-4.4887649,-10.729153)"
           id="g6273">
          <text
             sodipodi:linespacing="125%"
             id="text6275"
             y="554.82397"
             x="524.63074"
             style="font-size:11.93329334px;font-style:normal;font-variant:normal;font-weight:normal;font-stretch:normal;text-align:start;line-height:125%;letter-spacing:0px;word-spacing:0px;writing-mode:lr-tb;text-anchor:start;fill:#000000;fill-opacity:1;stroke:none;font-family:Ubuntu;-inkscape-font-specification:Ubuntu"
             xml:space="preserve"><tspan
               id="tspan6277"
               style="text-align:center;text-anchor:middle"
               y="554.82397"
               x="524.63074"
               sodipodi:role="line">trellis.h</tspan></text>
          <path
             sodipodi:nodetypes="cc"
             inkscape:connector-curvature="0"
             id="path6279"
             d="m 356.53973,565.75344 28.57143,0"
             style="fill:none;stroke:#000000;stroke-width:1.77199996;stroke-linecap:butt;stroke-linejoin:miter;stroke-miterlimit:4;stroke-opacity:1;stroke-dasharray:none;marker-start:url(#DotM)" />
          <path
             inkscape:connector-curvature="0"
             id="path6281"
             d="m 521.79964,565.70486 -28.42349,0"
             style="fill:none;stroke:#000000;stroke-width:1.77199996;stroke-linecap:butt;stroke-linejoin:miter;stroke-miterlimit:4;stroke-opacity:1;stroke-dasharray:none;marker-start:url(#CurveOut)"
             sodipodi:nodetypes="cc" />
          <g
             id="g6283">
            <rect
               style="fill:#ffffff;stroke:#000000;stroke-width:1.53963888"
               id="rect6285"
               width="107.80285"
               height="59.082813"
               x="385.4382"
               y="536.21204" />
            <text
               xml:space="preserve"
               style="font-size:11.93329334px;font-style:normal;font-variant:normal;font-weight:normal;font-stretch:normal;text-align:start;line-height:125%;letter-spacing:0px;word-spacing:0px;writing-mode:lr-tb;text-anchor:start;fill:#000000;fill-opacity:1;stroke:none;font-family:Ubuntu;-inkscape-font-specification:Ubuntu"
               x="438.91815"
               y="562.61499"
               id="text6287"
               sodipodi:linespacing="125%"><tspan
                 sodipodi:role="line"
                 x="438.91815"
                 y="562.61499"
                 id="tspan6289"
                 style="text-align:center;text-anchor:middle">TRELLIS</tspan><tspan
                 sodipodi:role="line"
                 x="438.91815"
                 y="577.53162"
                 style="text-align:center;text-anchor:middle"
                 id="tspan6291">driver</tspan></text>
            <g
               transform="translate(19.192898,0)"
               id="g6293">
              <path
                 inkscape:connector-curvature="0"
                 style="fill:#ffffff;stroke:#000000;stroke-width:0.88582677"
                 d="m 457.14493,538.4826 14.10212,0 0,19.23707 -14.10212,0 z"
                 id="path6295" />
              <path
                 inkscape:connector-curvature="0"
                 style="fill:#ffffff;stroke:#000000;stroke-width:0.88582677"
                 d="m 453.9223,541.77802 5.77386,0 0,4.14139 -5.77386,0 z"
                 id="path6297" />
              <path
                 inkscape:connector-curvature="0"
                 style="fill:#ffffff;stroke:#000000;stroke-width:0.88582677"
                 d="m 453.9223,549.96722 5.77386,0 0,4.1414 -5.77386,0 z"
                 id="path6299" />
            </g>
          </g>
          <path
             style="fill:none;stroke:#000000;stroke-width:1.77199996;stroke-linecap:butt;stroke-linejoin:miter;stroke-miterlimit:4;stroke-opacity:1;stroke-dasharray:none;marker-start:url(#DotM)"
             d="m 527.79499,565.75344 28.57143,0"
             id="path6301"
             inkscape:connector-curvature="0"
             sodipodi:nodetypes="cc" />
          <g
             id="g6303">
            <rect
               y="536.21204"
               x="556.87909"
               height="59.082813"
               width="107.80285"
               id="rect6305"
               style="fill:#ffffff;stroke:#000000;stroke-width:1.53963888" />
            <text
               sodipodi:linespacing="125%"
               id="text6307"
               y="561.56488"
               x="610.96686"
               style="font-size:11.93329334px;font-style:normal;font-variant:normal;font-weight:normal;font-stretch:normal;text-align:start;line-height:125%;letter-spacing:0px;word-spacing:0px;writing-mode:lr-tb;text-anchor:start;fill:#000000;fill-opacity:1;stroke:none;font-family:Ubuntu;-inkscape-font-specification:Ubuntu"
               xml:space="preserve"><tspan
                 style="text-align:center;text-anchor:middle"
                 id="tspan6309"
                 y="561.56488"
                 x="610.96686"
                 sodipodi:role="line">TRELLIS</tspan><tspan
                 id="tspan6311"
                 style="text-align:center;text-anchor:middle"
                 y="576.48151"
                 x="610.96686"
                 sodipodi:role="line">algorithm</tspan></text>
            <g
               transform="translate(189.90868,0.75761441)"
               id="g6313">
              <path
                 inkscape:connector-curvature="0"
                 id="path6315"
                 d="m 457.14493,538.4826 14.10212,0 0,19.23707 -14.10212,0 z"
                 style="fill:#ffffff;stroke:#000000;stroke-width:0.88582677" />
              <path
                 inkscape:connector-curvature="0"
                 id="path6317"
                 d="m 453.9223,541.77802 5.77386,0 0,4.14139 -5.77386,0 z"
                 style="fill:#ffffff;stroke:#000000;stroke-width:0.88582677" />
              <path
                 inkscape:connector-curvature="0"
                 id="path6319"
                 d="m 453.9223,549.96722 5.77386,0 0,4.1414 -5.77386,0 z"
                 style="fill:#ffffff;stroke:#000000;stroke-width:0.88582677" />
            </g>
          </g>
          <text
             xml:space="preserve"
             style="font-size:11.93329334px;font-style:normal;font-variant:normal;font-weight:normal;font-stretch:normal;text-align:start;line-height:125%;letter-spacing:0px;word-spacing:0px;writing-mode:lr-tb;text-anchor:start;fill:#000000;fill-opacity:1;stroke:none;font-family:Ubuntu;-inkscape-font-specification:Ubuntu"
             x="355.43018"
             y="554.82397"
             id="text6321"
             sodipodi:linespacing="125%"><tspan
               sodipodi:role="line"
               x="355.43018"
               y="554.82397"
               style="text-align:center;text-anchor:middle"
               id="tspan6323">driver.h</tspan></text>
          <path
             style="fill:none;stroke:#000000;stroke-width:1.77199996;stroke-linecap:butt;stroke-linejoin:miter;stroke-miterlimit:4;stroke-opacity:1;stroke-dasharray:none;marker-start:url(#Arrow1Mstart)"
             d="m 349.7212,565.75344 -37.08849,0"
             id="path6325"
             inkscape:connector-curvature="0"
             sodipodi:nodetypes="cc" />
        </g>
        <rect
           y="550.38141"
           x="301.78571"
           height="9.2857141"
           width="9.2857141"
           id="rect6327"
           style="fill:#ffffff;stroke:#000000;stroke-width:1.77165353;stroke-miterlimit:4;stroke-dasharray:none" />
      </g>
      <g
         transform="translate(101.01525,22.294443)"
         id="g6329">
        <rect
           style="fill:#ffffff;stroke:#000000;stroke-width:1.77165353"
           id="rect6331"
           width="380.46445"
           height="84.386177"
           x="306.26263"
           y="506.3714" />
        <text
           xml:space="preserve"
           style="font-size:11.93329334px;font-style:normal;font-variant:normal;font-weight:normal;font-stretch:normal;text-align:start;line-height:125%;letter-spacing:0px;word-spacing:0px;writing-mode:lr-tb;text-anchor:start;fill:#000000;fill-opacity:1;stroke:none;font-family:Ubuntu;-inkscape-font-specification:Ubuntu"
           x="510.07022"
           y="519.91064"
           id="text6333"
           sodipodi:linespacing="125%"><tspan
             sodipodi:role="line"
             x="510.07022"
             y="519.91064"
             style="text-align:center;text-anchor:middle"
             id="tspan6335">TRELLIS+</tspan></text>
        <g
           id="g6337"
           transform="translate(212.13204,-29.041885)">
          <path
             style="fill:#ffffff;stroke:#000000;stroke-width:0.88582677"
             d="m 457.14493,538.4826 14.10212,0 0,19.23707 -14.10212,0 z"
             id="path6339"
             inkscape:connector-curvature="0" />
          <path
             style="fill:#ffffff;stroke:#000000;stroke-width:0.88582677"
             d="m 453.9223,541.77802 5.77386,0 0,4.14139 -5.77386,0 z"
             id="path6341"
             inkscape:connector-curvature="0" />
          <path
             style="fill:#ffffff;stroke:#000000;stroke-width:0.88582677"
             d="m 453.9223,549.96722 5.77386,0 0,4.1414 -5.77386,0 z"
             id="path6343"
             inkscape:connector-curvature="0" />
        </g>
        <g
           id="g6345"
           transform="translate(-4.4887649,-10.729153)">
          <text
             xml:space="preserve"
             style="font-size:11.93329334px;font-style:normal;font-variant:normal;font-weight:normal;font-stretch:normal;text-align:start;line-height:125%;letter-spacing:0px;word-spacing:0px;writing-mode:lr-tb;text-anchor:start;fill:#000000;fill-opacity:1;stroke:none;font-family:Ubuntu;-inkscape-font-specification:Ubuntu"
             x="524.63074"
             y="554.82397"
             id="text6347"
             sodipodi:linespacing="125%"><tspan
               sodipodi:role="line"
               x="524.63074"
               y="554.82397"
               style="text-align:center;text-anchor:middle"
               id="tspan6349">trellis+.h</tspan></text>
          <path
             style="fill:none;stroke:#000000;stroke-width:1.77199996;stroke-linecap:butt;stroke-linejoin:miter;stroke-miterlimit:4;stroke-opacity:1;stroke-dasharray:none;marker-start:url(#DotM)"
             d="m 356.53973,565.75344 28.57143,0"
             id="path6351"
             inkscape:connector-curvature="0"
             sodipodi:nodetypes="cc" />
          <path
             sodipodi:nodetypes="cc"
             style="fill:none;stroke:#000000;stroke-width:1.77199996;stroke-linecap:butt;stroke-linejoin:miter;stroke-miterlimit:4;stroke-opacity:1;stroke-dasharray:none;marker-start:url(#CurveOut)"
             d="m 521.79964,565.70486 -28.42349,0"
             id="path6353"
             inkscape:connector-curvature="0" />
          <g
             id="g6355">
            <rect
               y="536.21204"
               x="385.4382"
               height="59.082813"
               width="107.80285"
               id="rect6357"
               style="fill:#ffffff;stroke:#000000;stroke-width:1.53963888" />
            <text
               sodipodi:linespacing="125%"
               id="text6359"
               y="562.61499"
               x="438.91815"
               style="font-size:11.93329334px;font-style:normal;font-variant:normal;font-weight:normal;font-stretch:normal;text-align:start;line-height:125%;letter-spacing:0px;word-spacing:0px;writing-mode:lr-tb;text-anchor:start;fill:#000000;fill-opacity:1;stroke:none;font-family:Ubuntu;-inkscape-font-specification:Ubuntu"
               xml:space="preserve"><tspan
                 style="text-align:center;text-anchor:middle"
                 id="tspan6361"
                 y="562.61499"
                 x="438.91815"
                 sodipodi:role="line">TRELLIS+</tspan><tspan
                 id="tspan6363"
                 style="text-align:center;text-anchor:middle"
                 y="577.53162"
                 x="438.91815"
                 sodipodi:role="line">driver</tspan></text>
            <g
               id="g6365"
               transform="translate(19.192898,0)">
              <path
                 id="path6367"
                 d="m 457.14493,538.4826 14.10212,0 0,19.23707 -14.10212,0 z"
                 style="fill:#ffffff;stroke:#000000;stroke-width:0.88582677"
                 inkscape:connector-curvature="0" />
              <path
                 id="path6369"
                 d="m 453.9223,541.77802 5.77386,0 0,4.14139 -5.77386,0 z"
                 style="fill:#ffffff;stroke:#000000;stroke-width:0.88582677"
                 inkscape:connector-curvature="0" />
              <path
                 id="path6371"
                 d="m 453.9223,549.96722 5.77386,0 0,4.1414 -5.77386,0 z"
                 style="fill:#ffffff;stroke:#000000;stroke-width:0.88582677"
                 inkscape:connector-curvature="0" />
            </g>
          </g>
          <path
             sodipodi:nodetypes="cc"
             inkscape:connector-curvature="0"
             id="path6373"
             d="m 527.79499,565.75344 28.57143,0"
             style="fill:none;stroke:#000000;stroke-width:1.77199996;stroke-linecap:butt;stroke-linejoin:miter;stroke-miterlimit:4;stroke-opacity:1;stroke-dasharray:none;marker-start:url(#DotM)" />
          <g
             id="g6375">
            <rect
               style="fill:#ffffff;stroke:#000000;stroke-width:1.53963888"
               id="rect6377"
               width="107.80285"
               height="59.082813"
               x="556.87909"
               y="536.21204" />
            <text
               xml:space="preserve"
               style="font-size:11.93329334px;font-style:normal;font-variant:normal;font-weight:normal;font-stretch:normal;text-align:start;line-height:125%;letter-spacing:0px;word-spacing:0px;writing-mode:lr-tb;text-anchor:start;fill:#000000;fill-opacity:1;stroke:none;font-family:Ubuntu;-inkscape-font-specification:Ubuntu"
               x="610.96686"
               y="561.56488"
               id="text6379"
               sodipodi:linespacing="125%"><tspan
                 sodipodi:role="line"
                 x="610.96686"
                 y="561.56488"
                 id="tspan6381"
                 style="text-align:center;text-anchor:middle">TRELLIS+</tspan><tspan
                 sodipodi:role="line"
                 x="610.96686"
                 y="576.48151"
                 style="text-align:center;text-anchor:middle"
                 id="tspan6383">algorithm</tspan></text>
            <g
               id="g6385"
               transform="translate(189.90868,0.75761441)">
              <path
                 style="fill:#ffffff;stroke:#000000;stroke-width:0.88582677"
                 d="m 457.14493,538.4826 14.10212,0 0,19.23707 -14.10212,0 z"
                 id="path6387"
                 inkscape:connector-curvature="0" />
              <path
                 style="fill:#ffffff;stroke:#000000;stroke-width:0.88582677"
                 d="m 453.9223,541.77802 5.77386,0 0,4.14139 -5.77386,0 z"
                 id="path6389"
                 inkscape:connector-curvature="0" />
              <path
                 style="fill:#ffffff;stroke:#000000;stroke-width:0.88582677"
                 d="m 453.9223,549.96722 5.77386,0 0,4.1414 -5.77386,0 z"
                 id="path6391"
                 inkscape:connector-curvature="0" />
            </g>
          </g>
          <text
             sodipodi:linespacing="125%"
             id="text6393"
             y="554.82397"
             x="355.43018"
             style="font-size:11.93329334px;font-style:normal;font-variant:normal;font-weight:normal;font-stretch:normal;text-align:start;line-height:125%;letter-spacing:0px;word-spacing:0px;writing-mode:lr-tb;text-anchor:start;fill:#000000;fill-opacity:1;stroke:none;font-family:Ubuntu;-inkscape-font-specification:Ubuntu"
             xml:space="preserve"><tspan
               id="tspan6395"
               style="text-align:center;text-anchor:middle"
               y="554.82397"
               x="355.43018"
               sodipodi:role="line">driver.h</tspan></text>
          <path
             sodipodi:nodetypes="cc"
             inkscape:connector-curvature="0"
             id="path6397"
             d="m 349.7212,565.75344 -37.08849,0"
             style="fill:none;stroke:#000000;stroke-width:1.77199996;stroke-linecap:butt;stroke-linejoin:miter;stroke-miterlimit:4;stroke-opacity:1;stroke-dasharray:none;marker-start:url(#Arrow1Mstart)" />
        </g>
        <rect
           style="fill:#ffffff;stroke:#000000;stroke-width:1.77165353;stroke-miterlimit:4;stroke-dasharray:none"
           id="rect6399"
           width="9.2857141"
           height="9.2857141"
           x="301.78571"
           y="550.38141" />
      </g>
      <g
         id="g6401"
         transform="translate(101.01525,207.21975)">
        <g
           transform="translate(-4.4887649,-10.729153)"
           id="g6417" />
        <g
           transform="translate(0,6.4244271e-6)"
           id="g6507">
          <rect
             style="fill:#ffffff;stroke:#000000;stroke-width:1.77165353"
             id="rect6403"
             width="380.46445"
             height="84.386177"
             x="306.26263"
             y="506.3714" />
          <text
             xml:space="preserve"
             style="font-size:11.93329334px;font-style:normal;font-variant:normal;font-weight:normal;font-stretch:normal;text-align:start;line-height:125%;letter-spacing:0px;word-spacing:0px;writing-mode:lr-tb;text-anchor:start;fill:#000000;fill-opacity:1;stroke:none;font-family:Ubuntu;-inkscape-font-specification:Ubuntu"
             x="510.07022"
             y="519.91064"
             id="text6405"
             sodipodi:linespacing="125%"><tspan
               sodipodi:role="line"
               x="510.07022"
               y="519.91064"
               style="text-align:center;text-anchor:middle"
               id="tspan6407">B<tspan
   style="font-size:65.00091553%;baseline-shift:super"
   id="tspan6473">2</tspan>ST</tspan></text>
          <g
             id="g6409"
             transform="translate(212.13204,-29.041885)">
            <path
               style="fill:#ffffff;stroke:#000000;stroke-width:0.88582677"
               d="m 457.14493,538.4826 14.10212,0 0,19.23707 -14.10212,0 z"
               id="path6411"
               inkscape:connector-curvature="0" />
            <path
               style="fill:#ffffff;stroke:#000000;stroke-width:0.88582677"
               d="m 453.9223,541.77802 5.77386,0 0,4.14139 -5.77386,0 z"
               id="path6413"
               inkscape:connector-curvature="0" />
            <path
               style="fill:#ffffff;stroke:#000000;stroke-width:0.88582677"
               d="m 453.9223,549.96722 5.77386,0 0,4.1414 -5.77386,0 z"
               id="path6415"
               inkscape:connector-curvature="0" />
          </g>
          <text
             transform="translate(-4.488765,-10.72915)"
             xml:space="preserve"
             style="font-size:11.93329334px;font-style:normal;font-variant:normal;font-weight:normal;font-stretch:normal;text-align:start;line-height:125%;letter-spacing:0px;word-spacing:0px;writing-mode:lr-tb;text-anchor:start;fill:#000000;fill-opacity:1;stroke:none;font-family:Ubuntu;-inkscape-font-specification:Ubuntu"
             x="524.63074"
             y="554.82397"
             id="text6419"
             sodipodi:linespacing="125%"><tspan
               sodipodi:role="line"
               x="524.63074"
               y="554.82397"
               style="text-align:center;text-anchor:middle"
               id="tspan6421">b2st.h</tspan></text>
          <path
             transform="translate(-4.488765,-10.72915)"
             style="fill:none;stroke:#000000;stroke-width:1.77199996;stroke-linecap:butt;stroke-linejoin:miter;stroke-miterlimit:4;stroke-opacity:1;stroke-dasharray:none;marker-start:url(#DotM)"
             d="m 356.53973,565.75344 28.57143,0"
             id="path6423"
             inkscape:connector-curvature="0"
             sodipodi:nodetypes="cc" />
          <path
             transform="translate(-4.488765,-10.72915)"
             sodipodi:nodetypes="cc"
             style="fill:none;stroke:#000000;stroke-width:1.77199996;stroke-linecap:butt;stroke-linejoin:miter;stroke-miterlimit:4;stroke-opacity:1;stroke-dasharray:none;marker-start:url(#CurveOut)"
             d="m 521.79964,565.70486 -28.42349,0"
             id="path6425"
             inkscape:connector-curvature="0" />
          <g
             transform="translate(-4.488765,-10.72915)"
             id="g6427">
            <rect
               y="536.21204"
               x="385.4382"
               height="59.082813"
               width="107.80285"
               id="rect6429"
               style="fill:#ffffff;stroke:#000000;stroke-width:1.53963888" />
            <text
               sodipodi:linespacing="125%"
               id="text6431"
               y="562.61499"
               x="438.91815"
               style="font-size:11.93329334px;font-style:normal;font-variant:normal;font-weight:normal;font-stretch:normal;text-align:start;line-height:125%;letter-spacing:0px;word-spacing:0px;writing-mode:lr-tb;text-anchor:start;fill:#000000;fill-opacity:1;stroke:none;font-family:Ubuntu;-inkscape-font-specification:Ubuntu"
               xml:space="preserve"><tspan
                 style="text-align:center;text-anchor:middle"
                 id="tspan6433"
                 y="562.61499"
                 x="438.91815"
                 sodipodi:role="line">B<tspan
   style="font-size:65.00091553%;baseline-shift:super"
   id="tspan6475">2</tspan>ST</tspan><tspan
                 id="tspan6435"
                 style="text-align:center;text-anchor:middle"
                 y="577.53162"
                 x="438.91815"
                 sodipodi:role="line">driver</tspan></text>
            <g
               id="g6437"
               transform="translate(19.192898,0)">
              <path
                 id="path6439"
                 d="m 457.14493,538.4826 14.10212,0 0,19.23707 -14.10212,0 z"
                 style="fill:#ffffff;stroke:#000000;stroke-width:0.88582677"
                 inkscape:connector-curvature="0" />
              <path
                 id="path6441"
                 d="m 453.9223,541.77802 5.77386,0 0,4.14139 -5.77386,0 z"
                 style="fill:#ffffff;stroke:#000000;stroke-width:0.88582677"
                 inkscape:connector-curvature="0" />
              <path
                 id="path6443"
                 d="m 453.9223,549.96722 5.77386,0 0,4.1414 -5.77386,0 z"
                 style="fill:#ffffff;stroke:#000000;stroke-width:0.88582677"
                 inkscape:connector-curvature="0" />
            </g>
          </g>
          <path
             transform="translate(-4.488765,-10.72915)"
             sodipodi:nodetypes="cc"
             inkscape:connector-curvature="0"
             id="path6445"
             d="m 527.79499,565.75344 28.57143,0"
             style="fill:none;stroke:#000000;stroke-width:1.77199996;stroke-linecap:butt;stroke-linejoin:miter;stroke-miterlimit:4;stroke-opacity:1;stroke-dasharray:none;marker-start:url(#DotM)" />
          <g
             transform="translate(-4.488765,-10.72915)"
             id="g6447">
            <rect
               style="fill:#ffffff;stroke:#000000;stroke-width:1.53963888"
               id="rect6449"
               width="107.80285"
               height="59.082813"
               x="556.87909"
               y="536.21204" />
            <text
               xml:space="preserve"
               style="font-size:11.93329334px;font-style:normal;font-variant:normal;font-weight:normal;font-stretch:normal;text-align:start;line-height:125%;letter-spacing:0px;word-spacing:0px;writing-mode:lr-tb;text-anchor:start;fill:#000000;fill-opacity:1;stroke:none;font-family:Ubuntu;-inkscape-font-specification:Ubuntu"
               x="610.96686"
               y="561.56488"
               id="text6451"
               sodipodi:linespacing="125%"><tspan
                 sodipodi:role="line"
                 x="610.96686"
                 y="561.56488"
                 id="tspan6453"
                 style="text-align:center;text-anchor:middle">B<tspan
   style="font-size:65.00091553%;baseline-shift:super"
   id="tspan6477">2</tspan>ST</tspan><tspan
                 sodipodi:role="line"
                 x="610.96686"
                 y="576.48151"
                 style="text-align:center;text-anchor:middle"
                 id="tspan6455">algorithm</tspan></text>
            <g
               id="g6457"
               transform="translate(189.90868,0.75761441)">
              <path
                 style="fill:#ffffff;stroke:#000000;stroke-width:0.88582677"
                 d="m 457.14493,538.4826 14.10212,0 0,19.23707 -14.10212,0 z"
                 id="path6459"
                 inkscape:connector-curvature="0" />
              <path
                 style="fill:#ffffff;stroke:#000000;stroke-width:0.88582677"
                 d="m 453.9223,541.77802 5.77386,0 0,4.14139 -5.77386,0 z"
                 id="path6461"
                 inkscape:connector-curvature="0" />
              <path
                 style="fill:#ffffff;stroke:#000000;stroke-width:0.88582677"
                 d="m 453.9223,549.96722 5.77386,0 0,4.1414 -5.77386,0 z"
                 id="path6463"
                 inkscape:connector-curvature="0" />
            </g>
          </g>
          <text
             transform="translate(-4.488765,-10.72915)"
             sodipodi:linespacing="125%"
             id="text6465"
             y="554.82397"
             x="355.43018"
             style="font-size:11.93329334px;font-style:normal;font-variant:normal;font-weight:normal;font-stretch:normal;text-align:start;line-height:125%;letter-spacing:0px;word-spacing:0px;writing-mode:lr-tb;text-anchor:start;fill:#000000;fill-opacity:1;stroke:none;font-family:Ubuntu;-inkscape-font-specification:Ubuntu"
             xml:space="preserve"><tspan
               id="tspan6467"
               style="text-align:center;text-anchor:middle"
               y="554.82397"
               x="355.43018"
               sodipodi:role="line">driver.h</tspan></text>
          <path
             transform="translate(-4.488765,-10.72915)"
             sodipodi:nodetypes="cc"
             inkscape:connector-curvature="0"
             id="path6469"
             d="m 349.7212,565.75344 -37.08849,0"
             style="fill:none;stroke:#000000;stroke-width:1.77199996;stroke-linecap:butt;stroke-linejoin:miter;stroke-miterlimit:4;stroke-opacity:1;stroke-dasharray:none;marker-start:url(#Arrow1Mstart)" />
          <rect
             style="fill:#ffffff;stroke:#000000;stroke-width:1.77165353;stroke-miterlimit:4;stroke-dasharray:none"
             id="rect6471"
             width="9.2857141"
             height="9.2857141"
             x="301.78571"
             y="550.38141" />
        </g>
      </g>
      <path
         sodipodi:nodetypes="cc"
         inkscape:connector-curvature="0"
         id="path6546"
         d="m 390.42523,669.78136 12.76786,0"
         style="fill:none;stroke:#000000;stroke-width:1.77199996;stroke-linecap:butt;stroke-linejoin:miter;stroke-miterlimit:4;stroke-opacity:1;stroke-dasharray:none;marker-start:url(#DotM)" />
      <path
         style="fill:none;stroke:#000000;stroke-width:1.77199996;stroke-linecap:butt;stroke-linejoin:miter;stroke-miterlimit:4;stroke-opacity:1;stroke-dasharray:none;marker-start:url(#Arrow1Mstart)"
         d="m 383.90737,669.78136 -24.4112,0"
         id="path6574"
         inkscape:connector-curvature="0"
         sodipodi:nodetypes="cc" />
      <rect
         style="fill:#ffffff;stroke:#000000;stroke-width:1.77165353;stroke-miterlimit:4;stroke-dasharray:none"
         id="rect4611-7"
         width="9.2857141"
         height="9.2857141"
         x="350.07397"
         y="665.13849" />
      <path
         style="fill:none;stroke:#000000;stroke-width:1.77199996;stroke-linecap:butt;stroke-linejoin:miter;stroke-miterlimit:4;stroke-opacity:1;stroke-dasharray:none;marker-start:url(#DotM)"
         d="m 390.42523,761.95778 12.76786,0"
         id="path6988"
         inkscape:connector-curvature="0"
         sodipodi:nodetypes="cc" />
      <path
         sodipodi:nodetypes="cc"
         inkscape:connector-curvature="0"
         id="path6990"
         d="m 383.90737,761.95778 -24.4112,0"
         style="fill:none;stroke:#000000;stroke-width:1.77199996;stroke-linecap:butt;stroke-linejoin:miter;stroke-miterlimit:4;stroke-opacity:1;stroke-dasharray:none;marker-start:url(#Arrow1Mstart)" />
      <rect
         y="757.31488"
         x="350.07397"
         height="9.2857141"
         width="9.2857141"
         id="rect6992"
         style="fill:#ffffff;stroke:#000000;stroke-width:1.77165353;stroke-miterlimit:4;stroke-dasharray:none" />
      <path
         sodipodi:nodetypes="cc"
         inkscape:connector-curvature="0"
         id="path6994"
         d="m 390.42523,577.41554 12.76786,0"
         style="fill:none;stroke:#000000;stroke-width:1.77199996;stroke-linecap:butt;stroke-linejoin:miter;stroke-miterlimit:4;stroke-opacity:1;stroke-dasharray:none;marker-start:url(#DotM)" />
      <path
         style="fill:none;stroke:#000000;stroke-width:1.77199996;stroke-linecap:butt;stroke-linejoin:miter;stroke-miterlimit:4;stroke-opacity:1;stroke-dasharray:none;marker-start:url(#Arrow1Mstart)"
         d="m 383.90737,577.41554 -24.4112,0"
         id="path6996"
         inkscape:connector-curvature="0"
         sodipodi:nodetypes="cc" />
      <rect
         style="fill:#ffffff;stroke:#000000;stroke-width:1.77165353;stroke-miterlimit:4;stroke-dasharray:none"
         id="rect6998"
         width="9.2857141"
         height="9.2857141"
         x="350.07397"
         y="572.77264" />
      <path
         style="fill:none;stroke:#000000;stroke-width:1.77199996;stroke-linecap:butt;stroke-linejoin:miter;stroke-miterlimit:4;stroke-opacity:1;stroke-dasharray:none;marker-start:url(#DotM)"
         d="m 390.42523,484.92345 12.76786,0"
         id="path7000"
         inkscape:connector-curvature="0"
         sodipodi:nodetypes="cc" />
      <path
         sodipodi:nodetypes="cc"
         inkscape:connector-curvature="0"
         id="path7002"
         d="m 383.90737,484.92345 -24.4112,0"
         style="fill:none;stroke:#000000;stroke-width:1.77199996;stroke-linecap:butt;stroke-linejoin:miter;stroke-miterlimit:4;stroke-opacity:1;stroke-dasharray:none;marker-start:url(#Arrow1Mstart)" />
      <rect
         y="480.28058"
         x="350.07397"
         height="9.2857141"
         width="9.2857141"
         id="rect7004"
         style="fill:#ffffff;stroke:#000000;stroke-width:1.77165353;stroke-miterlimit:4;stroke-dasharray:none" />
      <path
         sodipodi:nodetypes="cc"
         inkscape:connector-curvature="0"
         id="path7006"
         d="m 336.49666,484.92345 12.76786,0"
         style="fill:none;stroke:#000000;stroke-width:1.77199996;stroke-linecap:butt;stroke-linejoin:miter;stroke-miterlimit:4;stroke-opacity:1;stroke-dasharray:none;marker-start:url(#DotM)" />
      <path
         style="fill:none;stroke:#000000;stroke-width:1.77199996;stroke-linecap:butt;stroke-linejoin:miter;stroke-miterlimit:4;stroke-opacity:1;stroke-dasharray:none;marker-start:url(#DotM)"
         d="m 336.49666,577.4155 12.76786,0"
         id="path7008"
         inkscape:connector-curvature="0"
         sodipodi:nodetypes="cc" />
      <path
         sodipodi:nodetypes="cc"
         inkscape:connector-curvature="0"
         id="path7010"
         d="m 336.49666,669.78135 12.76786,0"
         style="fill:none;stroke:#000000;stroke-width:1.77199996;stroke-linecap:butt;stroke-linejoin:miter;stroke-miterlimit:4;stroke-opacity:1;stroke-dasharray:none;marker-start:url(#DotM)" />
      <path
         style="fill:none;stroke:#000000;stroke-width:1.77199996;stroke-linecap:butt;stroke-linejoin:miter;stroke-miterlimit:4;stroke-opacity:1;stroke-dasharray:none;marker-start:url(#DotM)"
         d="m 336.49666,761.95774 12.76786,0"
         id="path7012"
         inkscape:connector-curvature="0"
         sodipodi:nodetypes="cc" />
      <rect
         y="401.1557"
         x="239.72116"
         height="417.409"
         width="77.674919"
         id="rect7016"
         style="fill:#ffffff;stroke:#000000;stroke-width:1.77165353" />
      <text
         sodipodi:linespacing="125%"
         id="text2987"
         y="606.95447"
         x="278.56311"
         style="font-size:11.93329334px;font-style:normal;font-variant:normal;font-weight:normal;font-stretch:normal;text-align:start;line-height:125%;letter-spacing:0px;word-spacing:0px;writing-mode:lr-tb;text-anchor:start;fill:#000000;fill-opacity:1;stroke:none;font-family:Ubuntu;-inkscape-font-specification:Ubuntu"
         xml:space="preserve"><tspan
           style="text-align:center;text-anchor:middle"
           id="tspan2991"
           y="606.95447"
           x="278.56311"
           sodipodi:role="line">ednai</tspan><tspan
           id="tspan2995"
           style="text-align:center;text-anchor:middle"
           y="621.87109"
           x="278.56311"
           sodipodi:role="line">frontend</tspan></text>
      <g
         transform="translate(-157.72542,-133.84521)"
         id="g5807">
        <path
           inkscape:connector-curvature="0"
           id="path5809"
           d="m 457.14493,538.4826 14.10212,0 0,19.23707 -14.10212,0 z"
           style="fill:#ffffff;stroke:#000000;stroke-width:0.88582677" />
        <path
           inkscape:connector-curvature="0"
           id="path5811"
           d="m 453.9223,541.77802 5.77386,0 0,4.14139 -5.77386,0 z"
           style="fill:#ffffff;stroke:#000000;stroke-width:0.88582677" />
        <path
           inkscape:connector-curvature="0"
           id="path5813"
           d="m 453.9223,549.96722 5.77386,0 0,4.1414 -5.77386,0 z"
           style="fill:#ffffff;stroke:#000000;stroke-width:0.88582677" />
      </g>
      <path
         style="fill:none;stroke:#000000;stroke-width:1.77199996;stroke-linecap:butt;stroke-linejoin:miter;stroke-miterlimit:4;stroke-opacity:1;stroke-dasharray:none;marker-start:url(#CurveOut)"
         d="m 330.37836,484.92345 -12.76786,0"
         id="path7018"
         inkscape:connector-curvature="0"
         sodipodi:nodetypes="cc" />
      <path
         sodipodi:nodetypes="cc"
         inkscape:connector-curvature="0"
         id="path7806"
         d="m 330.37836,577.36692 -12.76786,0"
         style="fill:none;stroke:#000000;stroke-width:1.77199996;stroke-linecap:butt;stroke-linejoin:miter;stroke-miterlimit:4;stroke-opacity:1;stroke-dasharray:none;marker-start:url(#CurveOut)" />
      <path
         style="fill:none;stroke:#000000;stroke-width:1.77199996;stroke-linecap:butt;stroke-linejoin:miter;stroke-miterlimit:4;stroke-opacity:1;stroke-dasharray:none;marker-start:url(#CurveOut)"
         d="m 330.37836,669.73277 -12.76786,0"
         id="path7808"
         inkscape:connector-curvature="0"
         sodipodi:nodetypes="cc" />
      <path
         sodipodi:nodetypes="cc"
         inkscape:connector-curvature="0"
         id="path7810"
         d="m 330.37836,761.90916 -12.76786,0"
         style="fill:none;stroke:#000000;stroke-width:1.77199996;stroke-linecap:butt;stroke-linejoin:miter;stroke-miterlimit:4;stroke-opacity:1;stroke-dasharray:none;marker-start:url(#CurveOut)" />
      <path
         sodipodi:nodetypes="cc"
         inkscape:connector-curvature="0"
         id="path7820"
         d="m 222.21095,609.8602 17.58929,0"
         style="fill:none;stroke:#000000;stroke-width:1.77199996;stroke-linecap:butt;stroke-linejoin:miter;stroke-miterlimit:4;stroke-opacity:1;stroke-dasharray:none;marker-start:url(#DotM)" />
      <text
         xml:space="preserve"
         style="font-size:11.93329334px;font-style:normal;font-variant:normal;font-weight:normal;font-stretch:normal;text-align:start;line-height:125%;letter-spacing:0px;word-spacing:0px;writing-mode:lr-tb;text-anchor:start;fill:#000000;fill-opacity:1;stroke:none;font-family:Ubuntu;-inkscape-font-specification:Ubuntu"
         x="205.88454"
         y="614.00104"
         id="text7824"
         sodipodi:linespacing="125%"><tspan
           sodipodi:role="line"
           x="205.88454"
           y="614.00104"
           style="text-align:center;text-anchor:middle"
           id="tspan7828">CLI</tspan></text>
    </g>
  </g>
</svg>
